<?xml version="1.0" encoding="UTF-8" standalone="no"?>
<!-- Created with Inkscape (http://www.inkscape.org/) -->

<svg
   xmlns:osb="http://www.openswatchbook.org/uri/2009/osb"
   xmlns:dc="http://purl.org/dc/elements/1.1/"
   xmlns:cc="http://creativecommons.org/ns#"
   xmlns:rdf="http://www.w3.org/1999/02/22-rdf-syntax-ns#"
   xmlns:svg="http://www.w3.org/2000/svg"
   xmlns="http://www.w3.org/2000/svg"
   xmlns:sodipodi="http://sodipodi.sourceforge.net/DTD/sodipodi-0.dtd"
   xmlns:inkscape="http://www.inkscape.org/namespaces/inkscape"
   width="1500"
   height="400"
   viewBox="0 0 1500 400"
   id="svg4295"
   version="1.1"
   inkscape:version="0.91 r13725"
   sodipodi:docname="header.svg">
  <defs
     id="defs4297">
    <linearGradient
       id="linearGradient6293"
       osb:paint="solid">
      <stop
         style="stop-color:#000080;stop-opacity:1;"
         offset="0"
         id="stop6295" />
    </linearGradient>
  </defs>
  <sodipodi:namedview
     id="base"
     pagecolor="#ffffff"
     bordercolor="#666666"
     borderopacity="1.0"
     inkscape:pageopacity="0.0"
     inkscape:pageshadow="2"
     inkscape:zoom="0.5"
     inkscape:cx="405.6383"
     inkscape:cy="130.55053"
     inkscape:document-units="px"
     inkscape:current-layer="layer1"
     showgrid="false"
     units="px"
     width="1500px"
     inkscape:window-width="1600"
     inkscape:window-height="876"
     inkscape:window-x="0"
     inkscape:window-y="24"
     inkscape:window-maximized="1" />
  <metadata
     id="metadata4300">
    <rdf:RDF>
      <cc:Work
         rdf:about="">
        <dc:format>image/svg+xml</dc:format>
        <dc:type
           rdf:resource="http://purl.org/dc/dcmitype/StillImage" />
        <dc:title></dc:title>
      </cc:Work>
    </rdf:RDF>
  </metadata>
  <g
     inkscape:label="Capa 1"
     inkscape:groupmode="layer"
     id="layer1"
     transform="translate(0,-652.36216)">
    <path
       style="fill:none;fill-rule:evenodd;stroke:#000000;stroke-width:1px;stroke-linecap:butt;stroke-linejoin:miter;stroke-opacity:1"
       d="M 800.04082,1151.3571 Z"
       id="path4847"
       inkscape:connector-curvature="0" />
    <path
       style="fill:#000080;fill-opacity:1;opacity:1;"
       d="m 1.0758526,653.43708 1497.9706474,0.0657 0,33.91307 0,28.53807 C 656.66595,718.40718 231.66037,902.24509 1.1909225,1004.4247 1.1525659,887.42883 1.1142092,770.43295 1.0758526,653.43708 Z"
       id="path4849"
       inkscape:connector-curvature="0"
       sodipodi:nodetypes="cccccc" />
    <path
       style="fill:#666666;fill-rule:evenodd;"
       d="M 2.3157523,1006.7373 C 258.66184,898.60723 616.67952,730.37535 1497.4984,716.1634 l 0.01,1.56862 C 571.27224,751.0518 277.92944,922.36396 2.2875969,1051.0755 Z"
       id="path6321"
       inkscape:connector-curvature="0"
       sodipodi:nodetypes="ccccc" />
    <path
       style="fill:#000033;fill-opacity:1;fill-rule:evenodd;"
       d="M 2.8274514,1002.0374 C 530.43162,764.57547 1001.2011,723.29629 1497.4944,714.38518 l -0.014,-1.12461 C 987.92152,722.25874 619.37263,707.16853 2.75,964.48716 Z"
       id="path6325"
       inkscape:connector-curvature="0"
       sodipodi:nodetypes="ccccc" />
  </g>
</svg>
